{
  "id": "2362441",
  "name": "cx_map",
  "font_family": "iconfont",
  "css_prefix_text": "icon-",
  "description": "",
  "glyphs": [
    {
      "icon_id": "2076218",
      "name": "播放2",
      "font_class": "bofang",
      "unicode": "e87c",
      "unicode_decimal": 59516
    },
    {
      "icon_id": "5562042",
      "name": "左箭头",
      "font_class": "zuojiantou",
      "unicode": "e603",
      "unicode_decimal": 58883
    },
    {
      "icon_id": "7053796",
      "name": "右箭头",
      "font_class": "youjiantou",
      "unicode": "e604",
      "unicode_decimal": 58884
    },
    {
      "icon_id": "5706394",
      "name": "人",
      "font_class": "ren",
      "unicode": "e602",
      "unicode_decimal": 58882
    },
    {
      "icon_id": "3217739",
      "name": "叉号",
      "font_class": "chahao",
      "unicode": "e677",
      "unicode_decimal": 58999
    },
    {
      "icon_id": "5815173",
      "name": "坐标",
      "font_class": "zuobiao",
      "unicode": "e601",
      "unicode_decimal": 58881
    },
    {
      "icon_id": "10223819",
      "name": "日历",
      "font_class": "rili",
      "unicode": "e660",
      "unicode_decimal": 58976
    },
    {
      "icon_id": "1989040",
      "name": "方块",
      "font_class": "fangkuai",
      "unicode": "e600",
      "unicode_decimal": 58880
    }
  ]
}
