<?xml version="1.0" standalone="no"?>
<!DOCTYPE svg PUBLIC "-//W3C//DTD SVG 1.1//EN" "http://www.w3.org/Graphics/SVG/1.1/DTD/svg11.dtd" >
<!--
2013-9-30: Created.
-->
<svg>
<metadata>
Created by iconfont
</metadata>
<defs>

<font id="iconfont" horiz-adv-x="1024" >
  <font-face
    font-family="iconfont"
    font-weight="500"
    font-stretch="normal"
    units-per-em="1024"
    ascent="896"
    descent="-128"
  />
    <missing-glyph />
    
    <glyph glyph-name="zuojiantou" unicode="&#58883;" d="M399.399 362.42066666999995l292.155 292.16c12.278 12.27 12.278 32.186 0 44.457-12.27 12.278-32.186 12.278-44.457 0l-314.387-314.389c-12.281-12.27-12.281-32.186 0-44.457l314.388-314.388c6.137-6.14 14.183-9.211 22.228-9.211s16.092 3.071 22.228 9.211c12.281 12.27 12.281 32.186 0 44.457l-292.157 292.161z"  horiz-adv-x="1024" />

    
    <glyph glyph-name="youjiantou" unicode="&#58884;" d="M624.86499999 405.08633333l-292.15499999 292.159c-12.28 12.27-12.28 32.186 0 44.457 12.27 12.28 32.186 12.28 44.457 0l314.388-314.388c12.28-12.27 12.28-32.186 0-44.457l-314.388-314.387c-6.136-6.14-14.183-9.211-22.228-9.211s-16.092 3.071-22.228 9.211c-12.28 12.27-12.28 32.186 0 44.457l292.155 292.16z"  horiz-adv-x="1024" />

    
    <glyph glyph-name="ren" unicode="&#58882;" d="M938.666667 106.66666699999996c8.533333 17.066667 17.066667 29.866667 25.6 46.933333 4.266667 4.266667 4.266667 8.533333 4.266666 12.8 4.266667 12.8 12.8 25.6 17.066667 38.4 4.266667 4.266667 4.266667 8.533333 4.266667 17.066667 4.266667 12.8 8.533333 25.6 12.8 34.133333 0 4.266667 4.266667 12.8 4.266666 17.066667 4.266667 12.8 4.266667 25.6 8.533334 38.4 0 4.266667 4.266667 12.8 4.266666 17.066666 4.266667 17.066667 4.266667 38.4 4.266667 55.466667 0 281.6-230.4 512-512 512s-512-230.4-512-512c0-17.066667 0-38.4 4.266667-55.466667 0-4.266667 0-12.8 4.266666-17.066666 0-12.8 4.266667-25.6 4.266667-38.4 0-4.266667 4.266667-12.8 4.266667-17.066667 4.266667-12.8 8.533333-25.6 12.8-34.133333 0-4.266667 4.266667-8.533333 4.266666-17.066667 4.266667-12.8 8.533333-25.6 17.066667-38.4 0-4.266667 4.266667-8.533333 4.266667-12.8 8.533333-17.066667 17.066667-29.866667 25.6-46.933333 89.6-140.8 247.466667-234.666667 426.666666-234.666667s337.066667 93.866667 430.933334 234.666667c-4.266667 0-4.266667 0 0 0zM507.733333 652.8c102.4 0 187.733333-85.333333 187.733334-187.733333 0-102.4-85.333333-187.733333-187.733334-187.733334s-187.733333 85.333333-187.733333 187.733334c0 102.4 85.333333 187.733333 187.733333 187.733333z m-311.466666-588.8c55.466667 123.733333 174.933333 204.8 311.466666 204.8s256-81.066667 311.466667-204.8c-81.066667-76.8-192-128-311.466667-128-119.466667 4.266667-230.4 51.2-311.466666 128z"  horiz-adv-x="1024" />

    
    <glyph glyph-name="chahao" unicode="&#58999;" d="M495.232 397.397333L223.701333 668.928a21.333333 21.333333 0 1 1-30.165333-30.165333l271.530667-271.530667-254.762667-254.762667a21.333333 21.333333 0 1 1 30.165333-30.165333l254.762667 254.762667 271.530667-271.530667a21.333333 21.333333 0 0 1 30.165333 30.165333l-271.530667 271.530667 288.298667 288.298667a21.333333 21.333333 0 1 1-30.165333 30.165333l-288.298667-288.298667z"  horiz-adv-x="1024" />

    
    <glyph glyph-name="zuobiao" unicode="&#58881;" d="M511.965867 861.9008C419.84 861.9008 170.5984 794.4192 170.5984 553.3696 170.5984 288.46079999999995 511.965867-93.866667 511.965867-93.866667s341.435733 382.327467 341.435733 647.236267C853.333333 794.4192 604.0576 861.9008 511.965867 861.9008z m0.170666-505.6512c-92.228267 0-167.0144 74.069333-167.0144 165.4784 0 91.477333 74.786133 165.5808 167.0144 165.5808 92.125867 0 166.8096-74.103467 166.8096-165.5808 0-91.374933-74.683733-165.4784-166.8096-165.4784z"  horiz-adv-x="1024" />

    
    <glyph glyph-name="rili" unicode="&#58976;" d="M874.667 426.667h-85.334v-85.334h85.334v85.334z m-256-149.334h-85.334V192h85.334v85.333z m0-149.333h-85.334v-85.333h85.334V128z m128 149.333h-85.334V192h85.334v85.333z m-128 149.334h-85.334v-85.334h85.334v85.334z m256-149.334h-85.334V192h85.334v85.333z m-128 149.334h-85.334v-85.334h85.334v85.334z m-256 0h-85.334v-85.334h85.334v85.334z m-256-149.334h-85.334V192h85.334v85.333z m128-149.333h-85.334v-85.333h85.334V128z m-128 298.667h-85.334v-85.334h85.334v85.334z m0-298.667h-85.334v-85.333h85.334V128z m256 149.333h-85.334V192h85.334v85.333zM896 768h-85.333V832c0 12.8-8.534 21.333-21.334 21.333S768 844.8 768 832v-64H256V832c0 12.8-8.533 21.333-21.333 21.333S213.333 844.8 213.333 832v-64H128c-46.933 0-85.333-38.4-85.333-85.333V0c0-46.933 38.4-85.333 85.333-85.333h768c46.933 0 85.333 38.4 85.333 85.333V682.667C981.333 729.6 942.933 768 896 768z m42.667-768c0-23.467-19.2-42.667-42.667-42.667H128c-23.467 0-42.667 19.2-42.667 42.667V512h853.334v-512z m0 554.667H85.333v128c0 23.466 19.2 42.666 42.667 42.666h85.333v-64c0-12.8 8.534-21.333 21.334-21.333S256 648.533 256 661.333v64h512v-64c0-12.8 8.533-21.333 21.333-21.333s21.334 8.533 21.334 21.333v64H896c23.467 0 42.667-19.2 42.667-42.666v-128z m-576-277.334h-85.334V192h85.334v85.333z m128-149.333h-85.334v-85.333h85.334V128z m-128 298.667h-85.334v-85.334h85.334v85.334z"  horiz-adv-x="1024" />

    
    <glyph glyph-name="fangkuai" unicode="&#58880;" d="M446.1 464c0-8.3-6.7-15-15-15H78c-8.3 0-15 6.7-15 15V817c0 8.3 6.7 15 15 15h353c8.3 0 15-6.7 15-15v-353h0.1zM959 464c0-8.3-6.7-15-15-15H591c-8.3 0-15 6.7-15 15V817c0 8.3 6.7 15 15 15h353c8.3 0 15-6.7 15-15v-353zM446.1-49c0-8.3-6.7-15-15-15H78c-8.3 0-15 6.7-15 15V304c0 8.3 6.7 15 15 15h353c8.3 0 15-6.7 15-15v-353h0.1zM959-49c0-8.3-6.7-15-15-15H591c-8.3 0-15 6.7-15 15V304c0 8.3 6.7 15 15 15h353c8.3 0 15-6.7 15-15v-353z"  horiz-adv-x="1024" />

    


  </font>
</defs></svg>
